EESchema Schematic File Version 2
LIBS:power
LIBS:device
LIBS:transistors
LIBS:conn
LIBS:linear
LIBS:regul
LIBS:74xx
LIBS:cmos4000
LIBS:adc-dac
LIBS:memory
LIBS:xilinx
LIBS:special
LIBS:microcontrollers
LIBS:dsp
LIBS:microchip
LIBS:analog_switches
LIBS:motorola
LIBS:texas
LIBS:intel
LIBS:audio
LIBS:interface
LIBS:digital-audio
LIBS:philips
LIBS:display
LIBS:cypress
LIBS:siliconi
LIBS:opto
LIBS:atmel
LIBS:contrib
LIBS:valves
LIBS:stm32
LIBS:w_microcontrollers
LIBS:TDTucano-cache
EELAYER 25 0
EELAYER END
$Descr A4 11693 8268
encoding utf-8
Sheet 1 1
Title "ThunderDrive Tucano"
Date "2015-09-01"
Rev "1"
Comp "Thunder Elektronics GmbH"
Comment1 ""
Comment2 ""
Comment3 ""
Comment4 ""
$EndDescr
$Comp
L STM32F405RG U?
U 1 1 55E57CDE
P 6150 3500
F 0 "U?" H 7150 5000 60  0000 C CNN
F 1 "STM32F405RG" H 7400 4900 60  0000 C CNN
F 2 "" H 6150 3500 60  0000 C CNN
F 3 "" H 6150 3500 60  0000 C CNN
	1    6150 3500
	1    0    0    -1  
$EndComp
$Comp
L LED D?
U 1 1 55E57EC6
P 6150 1100
F 0 "D?" H 6150 1200 50  0000 C CNN
F 1 "Vadc Orange" H 6150 1000 50  0000 C CNN
F 2 "" H 6150 1100 60  0000 C CNN
F 3 "" H 6150 1100 60  0000 C CNN
	1    6150 1100
	0    1    1    0   
$EndComp
$Comp
L R R?
U 1 1 55E57F67
P 5800 800
F 0 "R?" V 5880 800 40  0000 C CNN
F 1 "330R" V 5807 801 40  0000 C CNN
F 2 "" V 5730 800 30  0000 C CNN
F 3 "" H 5800 800 30  0000 C CNN
	1    5800 800 
	0    1    1    0   
$EndComp
$Comp
L C C?
U 1 1 55E5809C
P 8500 4650
F 0 "C?" H 8500 4750 40  0000 L CNN
F 1 "4µ7 Kerko 6V" V 8400 4450 40  0000 L CNN
F 2 "" H 8538 4500 30  0000 C CNN
F 3 "" H 8500 4650 60  0000 C CNN
	1    8500 4650
	1    0    0    -1  
$EndComp
$Comp
L C C?
U 1 1 55F2D991
P 7900 4650
F 0 "C?" H 7900 4750 40  0000 L CNN
F 1 "4µ7 Kerko 6V" V 7750 4450 40  0000 L CNN
F 2 "" H 7938 4500 30  0000 C CNN
F 3 "" H 7900 4650 60  0000 C CNN
	1    7900 4650
	1    0    0    -1  
$EndComp
$Comp
L DGND #PWR?
U 1 1 55F2DCA6
P 7900 5500
F 0 "#PWR?" H 7900 5500 40  0001 C CNN
F 1 "DGND" H 7900 5430 40  0000 C CNN
F 2 "" H 7900 5500 60  0000 C CNN
F 3 "" H 7900 5500 60  0000 C CNN
	1    7900 5500
	1    0    0    -1  
$EndComp
$Comp
L JUMPER JP?
U 1 1 55F2DE01
P 8150 4650
F 0 "JP?" H 8150 4800 60  0000 C CNN
F 1 "JUMPER F446" H 8150 4570 40  0000 C CNN
F 2 "" H 8150 4650 60  0000 C CNN
F 3 "" H 8150 4650 60  0000 C CNN
	1    8150 4650
	0    1    1    0   
$EndComp
$Comp
L JUMPER JP?
U 1 1 55F2E067
P 8750 4650
F 0 "JP?" H 8750 4800 60  0000 C CNN
F 1 "JUMPER F446" H 8750 4570 40  0000 C CNN
F 2 "" H 8750 4650 60  0000 C CNN
F 3 "" H 8750 4650 60  0000 C CNN
	1    8750 4650
	0    1    1    0   
$EndComp
Wire Wire Line
	8150 4200 8150 4450
Connection ~ 7900 4200
Wire Wire Line
	7900 4450 7900 4200
Wire Wire Line
	7900 4850 7900 5100
Wire Wire Line
	7900 5100 7900 5500
Wire Wire Line
	8150 4950 8150 5100
Wire Wire Line
	7900 5100 8150 5100
Wire Wire Line
	8150 5100 8500 5100
Wire Wire Line
	8500 5100 8750 5100
Connection ~ 7900 5100
Wire Wire Line
	8500 5100 8500 4850
Connection ~ 8150 5100
Wire Wire Line
	8750 5100 8750 4950
Connection ~ 8500 5100
Connection ~ 8150 4200
Wire Wire Line
	8500 4450 8500 4100
Wire Wire Line
	7750 4100 8500 4100
Wire Wire Line
	8500 4100 8750 4100
Wire Wire Line
	7750 4200 7900 4200
Wire Wire Line
	7900 4200 8150 4200
Wire Wire Line
	8750 4100 8750 4350
Connection ~ 8500 4100
$Comp
L C C?
U 1 1 55F2F5C5
P 3950 4050
F 0 "C?" H 3950 4150 40  0000 L CNN
F 1 "4µ7 Kerko 6V" H 3956 3965 40  0000 L CNN
F 2 "" H 3988 3900 30  0000 C CNN
F 3 "" H 3950 4050 60  0000 C CNN
	1    3950 4050
	1    0    0    -1  
$EndComp
Wire Wire Line
	4550 3750 3950 3750
Wire Wire Line
	3950 3750 3950 3850
$Comp
L DGND #PWR?
U 1 1 55F2F924
P 3950 4350
F 0 "#PWR?" H 3950 4350 40  0001 C CNN
F 1 "DGND" H 3950 4280 40  0000 C CNN
F 2 "" H 3950 4350 60  0000 C CNN
F 3 "" H 3950 4350 60  0000 C CNN
	1    3950 4350
	1    0    0    -1  
$EndComp
Wire Wire Line
	3950 4250 3950 4350
Text Notes 3800 4450 1    60   ~ 0
Notwenig für F446 
Text Notes 9300 5050 1    60   ~ 0
Beide Jumper brücken \nfür F446, Kerkos \nmüssen dann nicht \nbestückt werden\n
$Comp
L +3.3VADC #PWR?
U 1 1 55F30741
P 6400 1900
F 0 "#PWR?" H 6400 2020 20  0001 C CNN
F 1 "+3.3VADC" H 6400 1990 30  0000 C CNN
F 2 "" H 6400 1900 60  0000 C CNN
F 3 "" H 6400 1900 60  0000 C CNN
	1    6400 1900
	1    0    0    -1  
$EndComp
Wire Wire Line
	6400 2050 6400 1900
$Comp
L +3.3VADC #PWR?
U 1 1 55F3097A
P 7850 2700
F 0 "#PWR?" H 7850 2820 20  0001 C CNN
F 1 "+3.3VADC" H 7850 2790 30  0000 C CNN
F 2 "" H 7850 2700 60  0000 C CNN
F 3 "" H 7850 2700 60  0000 C CNN
	1    7850 2700
	1    0    0    -1  
$EndComp
Wire Wire Line
	7750 2800 7850 2800
Wire Wire Line
	7850 2800 7850 2700
Text Notes 7900 2900 0    60   ~ 0
Damit Analogspannung\nmit ADC gemessen werden\nkann.\n
$Comp
L DGND #PWR?
U 1 1 55F30CE5
P 6000 5150
F 0 "#PWR?" H 6000 5150 40  0001 C CNN
F 1 "DGND" H 6000 5080 40  0000 C CNN
F 2 "" H 6000 5150 60  0000 C CNN
F 3 "" H 6000 5150 60  0000 C CNN
	1    6000 5150
	1    0    0    -1  
$EndComp
Wire Wire Line
	6000 4950 6000 5050
Wire Wire Line
	6000 5050 6000 5150
Wire Wire Line
	6100 4950 6100 5050
Wire Wire Line
	6100 5050 6000 5050
Connection ~ 6000 5050
$Comp
L AGND #PWR?
U 1 1 55F31183
P 6300 5150
F 0 "#PWR?" H 6300 5150 40  0001 C CNN
F 1 "AGND" H 6300 5080 50  0000 C CNN
F 2 "" H 6300 5150 60  0000 C CNN
F 3 "" H 6300 5150 60  0000 C CNN
	1    6300 5150
	1    0    0    -1  
$EndComp
Wire Wire Line
	6300 4950 6300 5150
$Comp
L +3.3V #PWR?
U 1 1 55F313C5
P 5900 1900
F 0 "#PWR?" H 5900 1860 30  0001 C CNN
F 1 "+3.3V" H 5900 2010 30  0000 C CNN
F 2 "" H 5900 1900 60  0000 C CNN
F 3 "" H 5900 1900 60  0000 C CNN
	1    5900 1900
	1    0    0    -1  
$EndComp
Wire Wire Line
	5900 1900 5900 1950
Wire Wire Line
	5900 1950 5900 2050
Wire Wire Line
	6000 2050 6000 1950
Wire Wire Line
	5900 1950 6000 1950
Wire Wire Line
	6000 1950 6100 1950
Wire Wire Line
	6100 1950 6200 1950
Connection ~ 5900 1950
Wire Wire Line
	6100 1950 6100 2050
Connection ~ 6000 1950
Wire Wire Line
	6200 1950 6200 2050
Connection ~ 6100 1950
$Comp
L C C?
U 1 1 55F31DCA
P 8350 3400
F 0 "C?" H 8350 3500 40  0000 L CNN
F 1 "100n 6V" V 8200 3200 40  0000 L CNN
F 2 "" H 8388 3250 30  0000 C CNN
F 3 "" H 8350 3400 60  0000 C CNN
	1    8350 3400
	1    0    0    -1  
$EndComp
$Comp
L DGND #PWR?
U 1 1 55F31F30
P 8350 3750
F 0 "#PWR?" H 8350 3750 40  0001 C CNN
F 1 "DGND" H 8350 3680 40  0000 C CNN
F 2 "" H 8350 3750 60  0000 C CNN
F 3 "" H 8350 3750 60  0000 C CNN
	1    8350 3750
	1    0    0    -1  
$EndComp
Wire Wire Line
	7750 3050 8350 3050
Wire Wire Line
	8350 3050 8350 3200
Wire Wire Line
	8350 3600 8350 3700
Wire Wire Line
	8350 3700 8350 3750
$Comp
L C C?
U 1 1 55F3240D
P 2300 1100
F 0 "C?" H 2300 1200 40  0000 L CNN
F 1 "2µ2 6V" V 2150 900 40  0000 L CNN
F 2 "" H 2338 950 30  0000 C CNN
F 3 "" H 2300 1100 60  0000 C CNN
	1    2300 1100
	1    0    0    -1  
$EndComp
$Comp
L C C?
U 1 1 55F324BD
P 2600 1100
F 0 "C?" H 2600 1200 40  0000 L CNN
F 1 "2µ2 6V" V 2450 900 40  0000 L CNN
F 2 "" H 2638 950 30  0000 C CNN
F 3 "" H 2600 1100 60  0000 C CNN
	1    2600 1100
	1    0    0    -1  
$EndComp
$Comp
L C C?
U 1 1 55F32508
P 2900 1100
F 0 "C?" H 2900 1200 40  0000 L CNN
F 1 "2µ2 6V" V 2750 900 40  0000 L CNN
F 2 "" H 2938 950 30  0000 C CNN
F 3 "" H 2900 1100 60  0000 C CNN
	1    2900 1100
	1    0    0    -1  
$EndComp
$Comp
L C C?
U 1 1 55F3254E
P 3250 1100
F 0 "C?" H 3250 1200 40  0000 L CNN
F 1 "2µ2 6V" V 3100 900 40  0000 L CNN
F 2 "" H 3288 950 30  0000 C CNN
F 3 "" H 3250 1100 60  0000 C CNN
	1    3250 1100
	1    0    0    -1  
$EndComp
$Comp
L +3.3V #PWR?
U 1 1 55F3259B
P 1000 700
F 0 "#PWR?" H 1000 660 30  0001 C CNN
F 1 "+3.3V" H 1000 810 30  0000 C CNN
F 2 "" H 1000 700 60  0000 C CNN
F 3 "" H 1000 700 60  0000 C CNN
	1    1000 700 
	1    0    0    -1  
$EndComp
$Comp
L DGND #PWR?
U 1 1 55F325D9
P 1000 1500
F 0 "#PWR?" H 1000 1500 40  0001 C CNN
F 1 "DGND" H 1000 1430 40  0000 C CNN
F 2 "" H 1000 1500 60  0000 C CNN
F 3 "" H 1000 1500 60  0000 C CNN
	1    1000 1500
	1    0    0    -1  
$EndComp
$Comp
L +3.3VADC #PWR?
U 1 1 55F32617
P 4850 650
F 0 "#PWR?" H 4850 770 20  0001 C CNN
F 1 "+3.3VADC" H 4850 740 30  0000 C CNN
F 2 "" H 4850 650 60  0000 C CNN
F 3 "" H 4850 650 60  0000 C CNN
	1    4850 650 
	1    0    0    -1  
$EndComp
$Comp
L AGND #PWR?
U 1 1 55F32689
P 4850 1500
F 0 "#PWR?" H 4850 1500 40  0001 C CNN
F 1 "AGND" H 4850 1430 50  0000 C CNN
F 2 "" H 4850 1500 60  0000 C CNN
F 3 "" H 4850 1500 60  0000 C CNN
	1    4850 1500
	1    0    0    -1  
$EndComp
$Comp
L C C?
U 1 1 55F326C7
P 4850 1100
F 0 "C?" H 4850 1200 40  0000 L CNN
F 1 "100n 6V" V 4700 900 40  0000 L CNN
F 2 "" H 4888 950 30  0000 C CNN
F 3 "" H 4850 1100 60  0000 C CNN
	1    4850 1100
	1    0    0    -1  
$EndComp
$Comp
L C C?
U 1 1 55F3274D
P 5200 1100
F 0 "C?" H 5200 1200 40  0000 L CNN
F 1 "100n 6V" V 5050 900 40  0000 L CNN
F 2 "" H 5238 950 30  0000 C CNN
F 3 "" H 5200 1100 60  0000 C CNN
	1    5200 1100
	1    0    0    -1  
$EndComp
$Comp
L CP2 C?
U 1 1 55F328D6
P 3750 1100
F 0 "C?" H 3750 1200 40  0000 L CNN
F 1 "100µ 6V" V 3600 900 40  0000 L CNN
F 2 "" H 3788 950 30  0000 C CNN
F 3 "" H 3750 1100 60  0000 C CNN
	1    3750 1100
	1    0    0    -1  
$EndComp
Wire Wire Line
	1000 1300 1000 1400
Wire Wire Line
	1000 1400 1000 1500
Wire Wire Line
	1000 1400 1300 1400
Wire Wire Line
	1300 1400 1600 1400
Wire Wire Line
	1600 1400 1950 1400
Wire Wire Line
	1950 1400 2300 1400
Wire Wire Line
	2300 1400 2600 1400
Wire Wire Line
	2600 1400 2900 1400
Wire Wire Line
	2900 1400 3250 1400
Wire Wire Line
	3250 1400 3750 1400
Wire Wire Line
	3750 1400 4450 1400
Wire Wire Line
	1300 1400 1300 1300
Connection ~ 1000 1400
Wire Wire Line
	1600 1400 1600 1300
Connection ~ 1300 1400
Wire Wire Line
	1950 1400 1950 1300
Connection ~ 1600 1400
Wire Wire Line
	3750 1400 3750 1300
Connection ~ 1950 1400
Wire Wire Line
	4850 1300 4850 1400
Wire Wire Line
	4850 1400 4850 1500
Wire Wire Line
	5200 1300 5200 1400
Wire Wire Line
	4850 1400 5200 1400
Wire Wire Line
	5200 1400 5500 1400
Wire Wire Line
	5500 1400 6150 1400
Connection ~ 4850 1400
$Comp
L CP2 C?
U 1 1 55F32E82
P 5500 1100
F 0 "C?" H 5500 1200 40  0000 L CNN
F 1 "100µ 6V" V 5350 900 40  0000 L CNN
F 2 "" H 5538 950 30  0000 C CNN
F 3 "" H 5500 1100 60  0000 C CNN
	1    5500 1100
	1    0    0    -1  
$EndComp
Wire Wire Line
	5500 1400 5500 1300
Connection ~ 5200 1400
Wire Wire Line
	4850 650  4850 800 
Wire Wire Line
	4850 800  4850 900 
Wire Wire Line
	4850 800  5200 800 
Wire Wire Line
	5200 800  5500 800 
Wire Wire Line
	5500 800  5550 800 
Wire Wire Line
	5200 800  5200 900 
Connection ~ 4850 800 
Wire Wire Line
	5500 800  5500 900 
Connection ~ 5200 800 
Wire Wire Line
	3750 800  3750 900 
Wire Wire Line
	1000 800  1300 800 
Wire Wire Line
	1300 800  1600 800 
Wire Wire Line
	1600 800  1950 800 
Wire Wire Line
	1950 800  2300 800 
Wire Wire Line
	2300 800  2600 800 
Wire Wire Line
	2600 800  2900 800 
Wire Wire Line
	2900 800  3250 800 
Wire Wire Line
	3250 800  3750 800 
Wire Wire Line
	3750 800  3850 800 
Wire Wire Line
	1000 700  1000 800 
Wire Wire Line
	1000 800  1000 900 
Connection ~ 1000 800 
Wire Wire Line
	1300 900  1300 800 
Connection ~ 1300 800 
Wire Wire Line
	1600 900  1600 800 
Connection ~ 1600 800 
Wire Wire Line
	1950 900  1950 800 
Connection ~ 1950 800 
$Comp
L CRYSTAL_SMD X?
U 1 1 55F6AD46
P 8200 2200
F 0 "X?" H 8200 2290 30  0000 C CNN
F 1 "8MHz" H 8230 2090 30  0000 L CNN
F 2 "" H 8200 2200 60  0000 C CNN
F 3 "" H 8200 2200 60  0000 C CNN
	1    8200 2200
	1    0    0    -1  
$EndComp
$Comp
L C C?
U 1 1 55F6B144
P 7950 1850
F 0 "C?" H 7950 1950 40  0000 L CNN
F 1 "15p 6V" V 7800 1650 40  0000 L CNN
F 2 "" H 7988 1700 30  0000 C CNN
F 3 "" H 7950 1850 60  0000 C CNN
	1    7950 1850
	1    0    0    -1  
$EndComp
$Comp
L C C?
U 1 1 55F6B1F2
P 8450 1850
F 0 "C?" H 8450 1950 40  0000 L CNN
F 1 "15p V" V 8300 1650 40  0000 L CNN
F 2 "" H 8488 1700 30  0000 C CNN
F 3 "" H 8450 1850 60  0000 C CNN
	1    8450 1850
	1    0    0    -1  
$EndComp
Wire Wire Line
	7950 2500 7750 2500
Wire Wire Line
	7950 2050 7950 2200
Wire Wire Line
	7950 2200 7950 2500
Wire Wire Line
	8000 2200 7950 2200
Connection ~ 7950 2200
Wire Wire Line
	8450 2550 7750 2550
Wire Wire Line
	8450 2050 8450 2200
Wire Wire Line
	8450 2200 8450 2550
Wire Wire Line
	8400 2200 8450 2200
Connection ~ 8450 2200
Wire Wire Line
	7950 1650 7950 1550
Wire Wire Line
	7950 1550 8200 1550
Wire Wire Line
	8200 1550 8450 1550
Wire Wire Line
	8450 1550 8450 1650
$Comp
L DGND #PWR?
U 1 1 55F6B94E
P 8200 1650
F 0 "#PWR?" H 8200 1650 40  0001 C CNN
F 1 "DGND" H 8200 1580 40  0000 C CNN
F 2 "" H 8200 1650 60  0000 C CNN
F 3 "" H 8200 1650 60  0000 C CNN
	1    8200 1650
	1    0    0    -1  
$EndComp
Wire Wire Line
	8200 1650 8200 1550
Connection ~ 8200 1550
Wire Wire Line
	7750 3700 8350 3700
Connection ~ 8350 3700
Connection ~ 5500 800 
Wire Wire Line
	6050 800  6150 800 
Wire Wire Line
	6150 800  6150 900 
Wire Wire Line
	6150 1400 6150 1300
Connection ~ 5500 1400
$Comp
L R R?
U 1 1 55F6F0CA
P 4100 800
F 0 "R?" V 4180 800 40  0000 C CNN
F 1 "330R" V 4107 801 40  0000 C CNN
F 2 "" V 4030 800 30  0000 C CNN
F 3 "" H 4100 800 30  0000 C CNN
	1    4100 800 
	0    1    1    0   
$EndComp
$Comp
L LED D?
U 1 1 55F6F155
P 4450 1100
F 0 "D?" H 4450 1200 50  0000 C CNN
F 1 "Vdig Green" H 4450 950 50  0000 C CNN
F 2 "" H 4450 1100 60  0000 C CNN
F 3 "" H 4450 1100 60  0000 C CNN
	1    4450 1100
	0    1    1    0   
$EndComp
Connection ~ 3750 800 
Wire Wire Line
	4350 800  4450 800 
Wire Wire Line
	4450 800  4450 900 
Wire Wire Line
	4450 1400 4450 1300
Connection ~ 3750 1400
$Comp
L C C?
U 1 1 55F7130B
P 1000 1100
F 0 "C?" H 1000 1200 40  0000 L CNN
F 1 "100n 6V" V 850 900 40  0000 L CNN
F 2 "" H 1038 950 30  0000 C CNN
F 3 "" H 1000 1100 60  0000 C CNN
	1    1000 1100
	1    0    0    -1  
$EndComp
$Comp
L C C?
U 1 1 55F713B1
P 1300 1100
F 0 "C?" H 1300 1200 40  0000 L CNN
F 1 "100n 6V" V 1150 900 40  0000 L CNN
F 2 "" H 1338 950 30  0000 C CNN
F 3 "" H 1300 1100 60  0000 C CNN
	1    1300 1100
	1    0    0    -1  
$EndComp
$Comp
L C C?
U 1 1 55F7143D
P 1600 1100
F 0 "C?" H 1600 1200 40  0000 L CNN
F 1 "100n 6V" V 1450 900 40  0000 L CNN
F 2 "" H 1638 950 30  0000 C CNN
F 3 "" H 1600 1100 60  0000 C CNN
	1    1600 1100
	1    0    0    -1  
$EndComp
$Comp
L C C?
U 1 1 55F714BA
P 1950 1100
F 0 "C?" H 1950 1200 40  0000 L CNN
F 1 "100n 6V" V 1800 900 40  0000 L CNN
F 2 "" H 1988 950 30  0000 C CNN
F 3 "" H 1950 1100 60  0000 C CNN
	1    1950 1100
	1    0    0    -1  
$EndComp
Wire Wire Line
	2300 1300 2300 1400
Connection ~ 2300 1400
Wire Wire Line
	2300 900  2300 800 
Connection ~ 2300 800 
Wire Wire Line
	2600 900  2600 800 
Connection ~ 2600 800 
Wire Wire Line
	2900 900  2900 800 
Connection ~ 2900 800 
Wire Wire Line
	3250 900  3250 800 
Connection ~ 3250 800 
Wire Wire Line
	3250 1300 3250 1400
Connection ~ 3250 1400
Wire Wire Line
	2900 1300 2900 1400
Connection ~ 2900 1400
Wire Wire Line
	2600 1300 2600 1400
Wire Wire Line
	2600 1400 2600 1400
Connection ~ 2600 1400
$EndSCHEMATC
